{
    "labRemote": {
	"readVoltageCmd": "./../build/bin/powersupply -n Keithley -c low-voltage -e ./../conf/input-hw.json meas-voltage",
	"readCurrentCmd": "./../build/bin/powersupply -n Keithley -c low-voltage -e ./../conf/input-hw.json meas-current",
	"setVoltCmd": "./../build/bin/powersupply -n Keithley -c low-voltage -e ./../conf/input-hw.json set-voltage",
	"powerOnCmd": "./../build/bin/powersupply -n Keithley -c low-voltage -e ./../conf/input-hw.json program on",
	"powerOffCmd": "./../build/bin/powersupply -n Keithley -c low-voltage -e ./../conf/input-hw.json power-off",
    },
    "settings":{
	"NRepititons": 4,
	"start": 0.3,
	"end": 1.5,
	"nSteps": 6,
	"sleep": 3,
	"chipType": "RD53a",
	"chipName": "0x0796",
	"boardtype": "sensor",
	"outFile": "IVout_test", 
	"debug": 1
    }
}
